id,x,y,z,ow,ox,oy,oz,vis,sel,lock,label,desc,associatedNodeID
vtkMRMLMarkupsFiducialNode_0,-1.9233541822701987,22.266675061306298,8.337523494228755,0,0,0,1,1,1,0,F-1,nan,vtkMRMLScalarVolumeNode1
vtkMRMLMarkupsFiducialNode_1,0.5591836031856019,24.015655333373285,10.11666017795708,0,0,0,1,1,1,0,F-2,nan,vtkMRMLScalarVolumeNode1
