id,x,y,z,ow,ox,oy,oz,vis,sel,lock,label,desc,associatedNodeID,,
vtkMRMLMarkupsFiducialNode_0,-12.577250707071707,11.83349693678351,-0.9091455340385455,0,0,0,1,1,1,0,F-1,nan,vtkMRMLScalarVolumeNode1,2,0
vtkMRMLMarkupsFiducialNode_1,-15.5735502243042,9.786781311035156,-3.719557523727417,0,0,0,1,1,1,0,F-2,nan,vtkMRMLScalarVolumeNode1,2,0
3,-2.067857564768036,18.46274632864838,1.6749317015403629,0,0,0,1,1,1,0,tmi-3,,,2,0
4,-0.6775740467457138,20.448959036798495,0.8151471948777995,0,0,0,1,1,1,0,tmi-4,,,2,0
