id,x,y,z,ow,ox,oy,oz,vis,sel,lock,label,desc,associatedNodeID,,
vtkMRMLMarkupsFiducialNode_0,14.148457333590226,18.047084822534266,5.365598722800772,0,0,0,1,1,1,0,F-1,nan,vtkMRMLScalarVolumeNode1,2,0
vtkMRMLMarkupsFiducialNode_1,15.195889844186738,18.135308190071804,3.830575717842415,0,0,0,1,1,1,0,F-2,nan,vtkMRMLScalarVolumeNode1,2,0
3,10.43483443279609,16.899814420325196,5.570329284916116,0,0,0,1,1,1,0,tmi-3,,,2,0
4,9.008552182010959,17.73385345012601,5.57781347728331,0,0,0,1,1,1,0,tmi-4,,,2,0
