id,x,y,z,ow,ox,oy,oz,vis,sel,lock,label,desc,associatedNodeID
vtkMRMLMarkupsFiducialNode_0,39.64400661755192,20.136532328771075,5.214845474947303,0,0,0,1,1,1,0,F-1,nan,vtkMRMLScalarVolumeNode1
vtkMRMLMarkupsFiducialNode_1,41.62927575599528,20.675793998764483,1.442115586249825,0,0,0,1,1,1,0,F-2,nan,vtkMRMLScalarVolumeNode1
