id,x,y,z,ow,ox,oy,oz,vis,sel,lock,label,desc,associatedNodeID
vtkMRMLMarkupsFiducialNode_0,-1.1862244102818522,15.641037489064235,17.33183156569979,0,0,0,1,1,1,0,F-1,nan,vtkMRMLScalarVolumeNode1
vtkMRMLMarkupsFiducialNode_1,3.3368651633474844,14.85008739249552,16.10180026514184,0,0,0,1,1,1,0,F-2,nan,vtkMRMLScalarVolumeNode1
