id,x,y,z,ow,ox,oy,oz,vis,sel,lock,label,desc,associatedNodeID,,
vtkMRMLMarkupsFiducialNode_0,35.93676959160785,27.265458095761204,15.284506032618083,0,0,0,1,1,1,0,F-1,nan,vtkMRMLScalarVolumeNode1,2,0
vtkMRMLMarkupsFiducialNode_1,38.43617610875571,27.375268936157227,14.396607359611696,0,0,0,1,1,1,0,F-2,nan,vtkMRMLScalarVolumeNode1,2,0
