id,x,y,z,ow,ox,oy,oz,vis,sel,lock,label,desc,associatedNodeID,,
vtkMRMLMarkupsFiducialNode_0,-8.519693955353063,10.799626641024647,-1.431124600363491,0,0,0,1,1,1,0,F-1,nan,vtkMRMLScalarVolumeNode1,2,0
vtkMRMLMarkupsFiducialNode_1,-6.241512172752422,9.356866377590563,-1.5920020113223963,0,0,0,1,1,1,0,F-2,nan,vtkMRMLScalarVolumeNode1,2,0
