id,x,y,z,ow,ox,oy,oz,vis,sel,lock,label,desc,associatedNodeID,,
vtkMRMLMarkupsFiducialNode_0,1.91178481469208,32.438107665863875,26.659722167845445,0,0,0,1,1,1,0,F-1,nan,vtkMRMLScalarVolumeNode1,2,0
vtkMRMLMarkupsFiducialNode_1,2.6597363347615754,33.322103439905995,28.829415973467135,0,0,0,1,1,1,0,F-2,nan,vtkMRMLScalarVolumeNode1,2,0
