id,x,y,z,ow,ox,oy,oz,vis,sel,lock,label,desc,associatedNodeID,,
vtkMRMLMarkupsFiducialNode_0,0.8722894863430071,19.30968888826015,14.764725028318072,0,0,0,1,1,1,0,F-1,nan,vtkMRMLScalarVolumeNode1,2,0
vtkMRMLMarkupsFiducialNode_1,1.692601986343007,22.586478977333883,16.38979978794,0,0,0,1,1,1,0,F-2,nan,vtkMRMLScalarVolumeNode1,2,0
