id,x,y,z,ow,ox,oy,oz,vis,sel,lock,label,desc,associatedNodeID,,
3,11.02808687060262,8.286417899875149,9.775104430129012,0,0,0,1,1,1,0,tmi-3,,,2,0
4,11.367832752416229,3.735542186750524,8.85524052317584,0,0,0,1,1,1,0,tmi-4,,,2,0
