id,x,y,z,ow,ox,oy,oz,vis,sel,lock,label,desc,associatedNodeID,,
vtkMRMLMarkupsFiducialNode_0,-3.0135297426763614,18.169973302651474,11.917055851994213,0,0,0,1,1,1,0,F-1,nan,vtkMRMLScalarVolumeNode1,2,0
vtkMRMLMarkupsFiducialNode_1,-2.84315329950455,20.51543671053055,12.808358192443848,0,0,0,1,1,1,0,F-2,nan,vtkMRMLScalarVolumeNode1,2,0
3,27.543397749325216,19.563917228665222,10.185546224358987,0,0,0,1,1,1,0,tmi-3,,,2,0
4,28.13634365860992,18.286016265604523,8.617147952507207,0,0,0,1,1,1,0,tmi-4,,,2,0
